{
  "rules": {
    "myRooms": {
      ".read": "true", 
      ".write": "true"
    },
    "opentok": {
      ".read": "auth != null", //"auth.admin === true",
      ".write": "auth != null"
    },
    "recordingsQueue": {
      ".indexOn": "status",
      ".read": "auth != null",
      ".write": "auth.admin === true"
    },
    "logs": {
      ".indexOn": "sessionId",
      ".read": "auth != null",
      ".write": "auth.admin === true",
      "logStream": {
      	".indexOn": "timestamp"
    	},
    },
    "stripe_customers": {
      ".indexOn": "customerData/id",
      //".read": "auth != null",
      //".write": "auth != null",
      "$user_id": {
        // granted for the user himself
        // additionally admin, functions admin
        ".read": "$user_id === auth.uid || auth.admin === true",
        ".write": "$user_id === auth.uid || auth.admin === true|| root.child('users/' + auth.uid + '/role').val() === 2",
      } 
    },
    "featureToggles": {
      ".read": "auth != null",
      ".write": "auth.admin === true || root.child('users/' + auth.uid + '/role').val() === 2"
    },
    "institutions": {
      ".read": "auth != null",
      // ".write": "true"
    },
    "widget": {
      ".read": "true",
      ".write": "auth.admin === true || root.child('users/' + auth.uid + '/role').val() === 2"
    },
    "directShare": {
      ".read": "true", //"auth != null",
      ".write": "true"
    },
    "now": {
      ".indexOn": ["timestamp","sessionId"],
      ".read": "true", //"auth != null",
      ".write": "true",
      "$room_id": {
        // you can write as admin
        // or for initial write
        // or if your userid equals the initialy writen userID
        ".write": "!data.exists() && auth != null || root.child('now/' + $room_id + '/owner').val() === auth.uid && !root.child('now/' + $room_id + '/delete').exists()  || auth.admin === true",
      }
    },
    "recordings": {
      "$id": {
      	".read": "$id === auth.uid",
        ".write": "$id === auth.uid || auth.admin === true",
      }
    },
    "groups": {
      ".read": "auth != null",
      ".write": "auth != null || auth.admin === true",
    },
    "groupsUsers": {
      ".read": "auth != null",
      ".write": "auth != null || auth.admin === true",
    },
    "documents": {
      ".indexOn": ["id", "filename", "size", "updatedOn"],
      "$id": {
      	".read": "$id === auth.uid",
        ".write": "$id === auth.uid || auth.admin === true",
      }
    },
    "sharedDocuments": {
      ".indexOn": ["ownerId","recipientId","id","storagePath"],
      ".read": "auth != null",
      ".write": "auth != null || auth.admin === true",
    },
    "classrooms": {
      // for auth users
      ".read": "auth != null",
      //".read": true,
    	// admin only
      // ".write": "auth.admin === true",
      ".write": "auth != null",
      "$id": {
      	// must exist in users && have role == 1
      	//".validate": "newData.val() === false || $id === auth.uid"
        // TODO: secure!!
      	"participants": {
          // ".write": false,
        	// ".write": true, 
          ".read": true,
        },
        "locked": {
          // ".read": true,
        }
      },
      "defaultmode": {
        // only coaches & admins
      	".validate": "root.child('users/' + auth.uid + '/role').val() > 0"
      }
    },
    "coachCustomer": {
      ".indexOn": ["id","uid","status"],
      // for auth users
      ".read": "auth != null",
    	// for auth users
      ".write": "auth != null",
      "$id": {
        "$childId": {
        	// auth users can only add 'false'
        	// owners can edit all
      		//".validate": "newData.val() === false || $id === auth.uid"
        }
      }
    },
    "invites": {
      // for auth users
      ".read": true,
    	// all auth and Coaches
      ".write": "auth != null || root.child('users/' + auth.uid + '/role').val() === 1"
    },
    "instruments": {
      // for auth users
      ".read": "auth != null",
    	// and Admins
      ".write": "root.child('users/' + auth.uid + '/role').val() === 2"
    },
    "styles": {
      // for auth users
      ".read": "auth != null",
    	// and Admins
      ".write": "root.child('users/' + auth.uid + '/role').val() === 2"
    },
    "chats": {
      ".indexOn": "receiver",
      // for auth users
      ".read": "auth != null",
    	// and Admins
      ".write": "auth != null"
    },
    "profiles": {
      // only access for directly addressing to child node
      // no listing possible
      "$user_id": {
        // grants read/write access to the owner of this user account
        // whose uid must exactly match the key ($user_id)
        //".read": "$user_id === auth.uid || root.child('profiles/' + $user_id + '/contactData/dataApproval').val() === true || root.child('users/' + auth.uid + '/role').val() === 2",
        ".write": "$user_id === auth.uid || root.child('users/' + auth.uid + '/role').val() === 2",
        // user can read its own data and
        // any user (coach), that has the userId stored in his coachCustomer list
        // any doozzoo admin (role 2)
        // TODO: restrict to institiution
        // any institutional admin
        ".read": "$user_id === auth.uid || 
            root.child('coachCustomer/' + auth.uid + '/' + $user_id).exists() || 
            root.child('coachCustomer/' + $user_id + '/' + auth.uid).exists() ||
            root.child('classrooms/' + auth.uid + '/participants/' + $user_id).exists() || 
            root.child('users/' + auth.uid + '/role').val() === 2 || root.child('users/' + auth.uid + '/role').val() === 3",
        "privateData": {
          //".write": "$user_id === auth.uid"	
        },
        "contactData": {
          //".write": "$user_id === auth.uid"	
        },
        "publicData": {
          //".write": "$user_id === auth.uid"	
        }
      }     
    },
    "users": {
      //".write": "true",
      // read for all authenticated users
      ".read": "auth != null",
      // for better performance
      ".indexOn": ["role","updatedOn","ct","lst","trigger/institutionId"],
      "$user_id": {
        // granted for the user himself
        // additionally admin, functions admin
        ".write": "$user_id === auth.uid || root.child('users/' + auth.uid + '/role').val() === 2 || root.child('users/' + auth.uid + '/role').val() === 3 || auth.admin === true",
        "role": {
          // 1. new data only allowed to set (-1) to a max of 0, if user is not coach or admin
          // temporary changed to < 2
          ".validate": "(newData.val() < 2 && $user_id === auth.uid) || root.child('users/' + auth.uid + '/role').val() === 2 || auth.admin === true"
        }
      }
    }   
  }
}
