{  "indexes": [    {
  "collectionGroup": "accounts",
  "queryScope": "COLLECTION",
  "fields": [
    {
      "fieldPath": "initiatorId",
      "order": "ASCENDING"
    },
    {
      "fieldPath": "email",
      "order": "ASCENDING"
    }
  ]
},
{
  "collectionGroup": "accounts",
  "queryScope": "COLLECTION",
  "fields": [
    {
      "fieldPath": "role",
      "order": "ASCENDING"
    },
    {
      "fieldPath": "email",
      "order": "ASCENDING"
    }
  ]
},
{
  "collectionGroup": "accounts",
  "queryScope": "COLLECTION",
  "fields": [
    {
      "fieldPath": "role",
      "order": "DESCENDING"
    },
    {
      "fieldPath": "email",
      "order": "ASCENDING"
    }
  ]
},
{
  "collectionGroup": "accounts",
  "queryScope": "COLLECTION",
  "fields": [
    {
      "fieldPath": "status",
      "order": "ASCENDING"
    },
    {
      "fieldPath": "email",
      "order": "ASCENDING"
    }
  ]
},
{
  "collectionGroup": "documents",
  "queryScope": "COLLECTION",
  "fields": [
    {
      "fieldPath": "tags",
      "arrayConfig": "CONTAINS"
    },
    {
      "fieldPath": "asc",
      "order": "ASCENDING"
    }
  ]
},
{
  "collectionGroup": "documents",
  "queryScope": "COLLECTION",
  "fields": [
    {
      "fieldPath": "tags",
      "arrayConfig": "CONTAINS"
    },
    {
      "fieldPath": "contentType",
      "order": "ASCENDING"
    },
    {
      "fieldPath": "filename",
      "order": "ASCENDING"
    }
  ]
},
{
  "collectionGroup": "documents",
  "queryScope": "COLLECTION",
  "fields": [
    {
      "fieldPath": "tags",
      "arrayConfig": "CONTAINS"
    },
    {
      "fieldPath": "contentType",
      "order": "ASCENDING"
    },
    {
      "fieldPath": "filename",
      "order": "DESCENDING"
    }
  ]
},
{
  "collectionGroup": "documents",
  "queryScope": "COLLECTION",
  "fields": [
    {
      "fieldPath": "tags",
      "arrayConfig": "CONTAINS"
    },
    {
      "fieldPath": "contentType",
      "order": "ASCENDING"
    },
    {
      "fieldPath": "size",
      "order": "ASCENDING"
    }
  ]
},
{
  "collectionGroup": "documents",
  "queryScope": "COLLECTION",
  "fields": [
    {
      "fieldPath": "tags",
      "arrayConfig": "CONTAINS"
    },
    {
      "fieldPath": "contentType",
      "order": "ASCENDING"
    },
    {
      "fieldPath": "size",
      "order": "DESCENDING"
    }
  ]
},
{
  "collectionGroup": "documents",
  "queryScope": "COLLECTION",
  "fields": [
    {
      "fieldPath": "tags",
      "arrayConfig": "CONTAINS"
    },
    {
      "fieldPath": "filename",
      "order": "ASCENDING"
    }
  ]
},
{
  "collectionGroup": "documents",
  "queryScope": "COLLECTION",
  "fields": [
    {
      "fieldPath": "tags",
      "arrayConfig": "CONTAINS"
    },
    {
      "fieldPath": "filename",
      "order": "DESCENDING"
    }
  ]
},
{
  "collectionGroup": "documents",
  "queryScope": "COLLECTION",
  "fields": [
    {
      "fieldPath": "tags",
      "arrayConfig": "CONTAINS"
    },
    {
      "fieldPath": "simpleContentType",
      "order": "ASCENDING"
    },
    {
      "fieldPath": "filename",
      "order": "ASCENDING"
    }
  ]
},
{
  "collectionGroup": "documents",
  "queryScope": "COLLECTION",
  "fields": [
    {
      "fieldPath": "tags",
      "arrayConfig": "CONTAINS"
    },
    {
      "fieldPath": "simpleContentType",
      "order": "ASCENDING"
    },
    {
      "fieldPath": "filename",
      "order": "DESCENDING"
    }
  ]
},
{
  "collectionGroup": "documents",
  "queryScope": "COLLECTION",
  "fields": [
    {
      "fieldPath": "tags",
      "arrayConfig": "CONTAINS"
    },
    {
      "fieldPath": "simpleContentType",
      "order": "ASCENDING"
    },
    {
      "fieldPath": "size",
      "order": "ASCENDING"
    }
  ]
},
{
  "collectionGroup": "documents",
  "queryScope": "COLLECTION",
  "fields": [
    {
      "fieldPath": "tags",
      "arrayConfig": "CONTAINS"
    },
    {
      "fieldPath": "simpleContentType",
      "order": "ASCENDING"
    },
    {
      "fieldPath": "size",
      "order": "DESCENDING"
    }
  ]
},
{
  "collectionGroup": "documents",
  "queryScope": "COLLECTION",
  "fields": [
    {
      "fieldPath": "tags",
      "arrayConfig": "CONTAINS"
    },
    {
      "fieldPath": "simpleContentType",
      "order": "ASCENDING"
    },
    {
      "fieldPath": "updatedOn",
      "order": "ASCENDING"
    }
  ]
},
{
  "collectionGroup": "documents",
  "queryScope": "COLLECTION",
  "fields": [
    {
      "fieldPath": "tags",
      "arrayConfig": "CONTAINS"
    },
    {
      "fieldPath": "simpleContentType",
      "order": "ASCENDING"
    },
    {
      "fieldPath": "updatedOn",
      "order": "DESCENDING"
    }
  ]
},
{
  "collectionGroup": "documents",
  "queryScope": "COLLECTION",
  "fields": [
    {
      "fieldPath": "tags",
      "arrayConfig": "CONTAINS"
    },
    {
      "fieldPath": "size",
      "order": "ASCENDING"
    }
  ]
},
{
  "collectionGroup": "documents",
  "queryScope": "COLLECTION",
  "fields": [
    {
      "fieldPath": "tags",
      "arrayConfig": "CONTAINS"
    },
    {
      "fieldPath": "size",
      "order": "DESCENDING"
    }
  ]
},
{
  "collectionGroup": "documents",
  "queryScope": "COLLECTION",
  "fields": [
    {
      "fieldPath": "tags",
      "arrayConfig": "CONTAINS"
    },
    {
      "fieldPath": "updatedOn",
      "order": "ASCENDING"
    }
  ]
},
{
  "collectionGroup": "documents",
  "queryScope": "COLLECTION",
  "fields": [
    {
      "fieldPath": "tags",
      "arrayConfig": "CONTAINS"
    },
    {
      "fieldPath": "updatedOn",
      "order": "DESCENDING"
    }
  ]
},
{
  "collectionGroup": "recordItems",
  "queryScope": "COLLECTION",
  "fields": [
    {
      "fieldPath": "channelId",
      "order": "ASCENDING"
    },
    {
      "fieldPath": "createdOn",
      "order": "ASCENDING"
    }
  ]
},
{
  "collectionGroup": "recordItems",
  "queryScope": "COLLECTION",
  "fields": [
    {
      "fieldPath": "channelId",
      "order": "ASCENDING"
    },
    {
      "fieldPath": "createdOn",
      "order": "DESCENDING"
    }
  ]
},
{
  "collectionGroup": "sharedMedia",
  "queryScope": "COLLECTION",
  "fields": [
    {
      "fieldPath": "recipientId",
      "order": "ASCENDING"
    },
    {
      "fieldPath": "filename",
      "order": "ASCENDING"
    }
  ]
},
{
  "collectionGroup": "sharedMedia",
  "queryScope": "COLLECTION",
  "fields": [
    {
      "fieldPath": "recipientId",
      "order": "ASCENDING"
    },
    {
      "fieldPath": "filename",
      "order": "DESCENDING"
    }
  ]
},
{
  "collectionGroup": "sharedMedia",
  "queryScope": "COLLECTION",
  "fields": [
    {
      "fieldPath": "recipientId",
      "order": "ASCENDING"
    },
    {
      "fieldPath": "simpleContentType",
      "order": "ASCENDING"
    },
    {
      "fieldPath": "filename",
      "order": "ASCENDING"
    }
  ]
},
{
  "collectionGroup": "sharedMedia",
  "queryScope": "COLLECTION",
  "fields": [
    {
      "fieldPath": "recipientId",
      "order": "ASCENDING"
    },
    {
      "fieldPath": "simpleContentType",
      "order": "ASCENDING"
    },
    {
      "fieldPath": "filename",
      "order": "DESCENDING"
    }
  ]
},
{
  "collectionGroup": "sharedMedia",
  "queryScope": "COLLECTION",
  "fields": [
    {
      "fieldPath": "recipientId",
      "order": "ASCENDING"
    },
    {
      "fieldPath": "simpleContentType",
      "order": "ASCENDING"
    },
    {
      "fieldPath": "updatedOn",
      "order": "ASCENDING"
    }
  ]
},
{
  "collectionGroup": "sharedMedia",
  "queryScope": "COLLECTION",
  "fields": [
    {
      "fieldPath": "recipientId",
      "order": "ASCENDING"
    },
    {
      "fieldPath": "simpleContentType",
      "order": "ASCENDING"
    },
    {
      "fieldPath": "updatedOn",
      "order": "DESCENDING"
    }
  ]
},
{
  "collectionGroup": "sharedMedia",
  "queryScope": "COLLECTION",
  "fields": [
    {
      "fieldPath": "recipientId",
      "order": "ASCENDING"
    },
    {
      "fieldPath": "size",
      "order": "ASCENDING"
    }
  ]
},
{
  "collectionGroup": "sharedMedia",
  "queryScope": "COLLECTION",
  "fields": [
    {
      "fieldPath": "recipientId",
      "order": "ASCENDING"
    },
    {
      "fieldPath": "size",
      "order": "DESCENDING"
    }
  ]
},
{
  "collectionGroup": "sharedMedia",
  "queryScope": "COLLECTION",
  "fields": [
    {
      "fieldPath": "recipientId",
      "order": "ASCENDING"
    },
    {
      "fieldPath": "updatedOn",
      "order": "ASCENDING"
    }
  ]
},
{
  "collectionGroup": "sharedMedia",
  "queryScope": "COLLECTION",
  "fields": [
    {
      "fieldPath": "recipientId",
      "order": "ASCENDING"
    },
    {
      "fieldPath": "updatedOn",
      "order": "DESCENDING"
    }
  ]
},
{
  "collectionGroup": "userPeers",
  "queryScope": "COLLECTION",
  "fields": [
    {
      "fieldPath": "institutionId",
      "order": "ASCENDING"
    },
    {
      "fieldPath": "userId",
      "order": "ASCENDING"
    },
    {
      "fieldPath": "email",
      "order": "ASCENDING"
    }
  ]
},
{
  "collectionGroup": "users",
  "queryScope": "COLLECTION",
  "fields": [
    {
      "fieldPath": "migrated",
      "order": "ASCENDING"
    },
    {
      "fieldPath": "totalDocuments",
      "order": "ASCENDING"
    }
  ]
}
],
"fieldOverrides": [
{
  "collectionGroup": "accounts",
  "fieldPath": "userId",
  "indexes": [
    {
      "order": "ASCENDING",
      "queryScope": "COLLECTION"
    },
    {
      "order": "DESCENDING",
      "queryScope": "COLLECTION"
    },
    {
      "arrayConfig": "CONTAINS",
      "queryScope": "COLLECTION"
    },
    {
      "order": "ASCENDING",
      "queryScope": "COLLECTION_GROUP"
    }
  ]
}
]
}